flickrData: "{"photos":{"page":1,"pages":3,"perpage":10,"total":"22","photo":[{"id":"29343349365","owner":"75438274@N03","secret":"c157b11051","server":"8315","farm":9,"title":"Gaia 2016 - Pinup","ispublic":1,"isfriend":0,"isfamily":0,"dateupload":"1472580086","lastupdate":"1472738987"},{"id":"28938723840","owner":"75438274@N03","secret":"90db5fcdc3","server":"7696","farm":8,"title":"Marley's Legacy","ispublic":1,"isfriend":0,"isfamily":0,"dateupload":"1472146990","lastupdate":"1472146991"},{"id":"10649248434","owner":"75438274@N03","secret":"3594eb4650","server":"7299","farm":8,"title":"koiBlonde","ispublic":1,"isfriend":0,"isfamily":0,"dateupload":"1383495696","lastupdate":"1415916902"},{"id":"9125709547","owner":"75438274@N03","secret":"0a1fb3235c","server":"7420","farm":8,"title":"Return to Egypt","ispublic":1,"isfriend":0,"isfamily":0,"dateupload":"1372090817","lastupdate":"1415916902"},{"id":"9127880354","owner":"75438274@N03","secret":"aa854a5e7f","server":"7339","farm":8,"title":"Glamour Ghosts","ispublic":1,"isfriend":0,"isfamily":0,"dateupload":"1372090816","lastupdate":"1415221299"},{"id":"9127866456","owner":"75438274@N03","secret":"4e6843ae3f","server":"7415","farm":8,"title":"Womantis","ispublic":1,"isfriend":0,"isfamily":0,"dateupload":"1372090333","lastupdate":"1415221328"},{"id":"9127866492","owner":"75438274@N03","secret":"6e3af40c53","server":"3755","farm":4,"title":"Sky Horses Outside of Boston","ispublic":1,"isfriend":0,"isfamily":0,"dateupload":"1372090332","lastupdate":"1415221356"},{"id":"9127866608","owner":"75438274@N03","secret":"f887a2c01e","server":"5495","farm":6,"title":"The Pink Elephant's Pixie","ispublic":1,"isfriend":0,"isfamily":0,"dateupload":"1372090331","lastupdate":"1415221390"},{"id":"9127866676","owner":"75438274@N03","secret":"ee8aac7436","server":"5472","farm":6,"title":"Eye and I","ispublic":1,"isfriend":0,"isfamily":0,"dateupload":"1372090330","lastupdate":"1415221423"},{"id":"9125646863","owner":"75438274@N03","secret":"aaf686b8c5","server":"3691","farm":4,"title":"Zombie Brother","ispublic":1,"isfriend":0,"isfamily":0,"dateupload":"1372090330","lastupdate":"1373743251"}]},"stat":"ok"}"
